{
	"credit": "Made with Blockbench",
	"textures": {
		"1": "herblore:block/brewmaster_apparatus"
	},
	"elements": [
		{
			"from": [3, 4, 5],
			"to": [8, 5, 6],
			"rotation": {"angle": 45, "axis": "y", "origin": [5.5, 4.5, 5.5]},
			"faces": {
				"north": {"uv": [4, 6, 6.5, 6.5], "texture": "#1"},
				"east": {"uv": [0, 0, 1, 1], "texture": "#1"},
				"south": {"uv": [0, 0, 5, 1], "texture": "#1"},
				"west": {"uv": [0, 0, 1, 1], "texture": "#1"},
				"up": {"uv": [15, 11, 16, 16], "rotation": 270, "texture": "#1"},
				"down": {"uv": [11, 8, 12, 13], "rotation": 90, "texture": "#1"}
			}
		},
		{
			"from": [8, 4, 10],
			"to": [13, 5, 11],
			"rotation": {"angle": 45, "axis": "y", "origin": [10.5, 4.5, 10.5]},
			"faces": {
				"north": {"uv": [5, 9, 10, 10], "texture": "#1"},
				"east": {"uv": [0, 0, 1, 1], "texture": "#1"},
				"south": {"uv": [4.5, 5.5, 7, 6], "texture": "#1"},
				"west": {"uv": [0, 0, 1, 1], "texture": "#1"},
				"up": {"uv": [15, 11, 16, 16], "rotation": 270, "texture": "#1"},
				"down": {"uv": [11, 8, 12, 13], "rotation": 90, "texture": "#1"}
			}
		},
		{
			"from": [10, 4, 3],
			"to": [11, 5, 8],
			"rotation": {"angle": 45, "axis": "y", "origin": [10.5, 4.5, 5.5]},
			"faces": {
				"north": {"uv": [0, 0, 1, 1], "texture": "#1"},
				"east": {"uv": [4, 6, 9, 7], "texture": "#1"},
				"south": {"uv": [0, 0, 1, 1], "texture": "#1"},
				"west": {"uv": [0, 0, 5, 1], "texture": "#1"},
				"up": {"uv": [15, 11, 16, 16], "texture": "#1"},
				"down": {"uv": [11, 8, 12, 13], "texture": "#1"}
			}
		},
		{
			"from": [7, 4, 9],
			"to": [9, 5, 12],
			"rotation": {"angle": 0, "axis": "y", "origin": [16, 12, 17]},
			"faces": {
				"north": {"uv": [0, 0, 1, 1], "texture": "#1"},
				"east": {"uv": [0, 5, 3, 6], "texture": "#1"},
				"south": {"uv": [0, 0, 2, 1], "texture": "#1"},
				"west": {"uv": [8, 11, 11, 12], "texture": "#1"},
				"up": {"uv": [0, 0, 2, 3], "texture": "#1"},
				"down": {"uv": [7, 10, 9, 13], "texture": "#1"}
			}
		},
		{
			"from": [7, 4, 4],
			"to": [9, 5, 7],
			"rotation": {"angle": 0, "axis": "y", "origin": [16, 12, 12]},
			"faces": {
				"north": {"uv": [0, 0, 1, 1], "texture": "#1"},
				"east": {"uv": [0, 5, 3, 6], "texture": "#1"},
				"south": {"uv": [0, 0, 2, 1], "texture": "#1"},
				"west": {"uv": [8, 11, 11, 12], "texture": "#1"},
				"up": {"uv": [10, 13, 12, 16], "texture": "#1"},
				"down": {"uv": [7, 10, 9, 13], "texture": "#1"}
			}
		},
		{
			"from": [4, 4, 7],
			"to": [7, 5, 9],
			"rotation": {"angle": 0, "axis": "y", "origin": [14, 12, 15]},
			"faces": {
				"north": {"uv": [10, 10, 13, 11], "texture": "#1"},
				"east": {"uv": [0, 0, 2, 1], "texture": "#1"},
				"south": {"uv": [5, 6, 6.5, 6.5], "texture": "#1"},
				"west": {"uv": [0, 0, 1, 1], "texture": "#1"},
				"up": {"uv": [11, 14, 14, 16], "texture": "#1"},
				"down": {"uv": [7, 10, 10, 12], "texture": "#1"}
			}
		},
		{
			"from": [9, 4, 7],
			"to": [12, 5, 9],
			"rotation": {"angle": 0, "axis": "y", "origin": [10.5, 4.5, 8]},
			"faces": {
				"north": {"uv": [10, 10, 13, 11], "texture": "#1"},
				"east": {"uv": [0, 0, 2, 1], "texture": "#1"},
				"south": {"uv": [5, 6, 6.5, 6.5], "texture": "#1"},
				"west": {"uv": [0, 0, 1, 1], "texture": "#1"},
				"up": {"uv": [11, 14, 14, 16], "texture": "#1"},
				"down": {"uv": [7, 10, 10, 12], "texture": "#1"}
			}
		},
		{
			"from": [5, 4, 8],
			"to": [6, 5, 13],
			"rotation": {"angle": 45, "axis": "y", "origin": [5.5, 4.5, 10.5]},
			"faces": {
				"north": {"uv": [0, 0, 1, 1], "texture": "#1"},
				"east": {"uv": [8, 11, 13, 12], "texture": "#1"},
				"south": {"uv": [0, 0, 1, 1], "texture": "#1"},
				"west": {"uv": [4.5, 5.5, 7, 6], "texture": "#1"},
				"up": {"uv": [15, 11, 16, 16], "texture": "#1"},
				"down": {"uv": [11, 8, 12, 13], "texture": "#1"}
			}
		},
		{
			"from": [9, 10, 7],
			"to": [10, 11, 9],
			"rotation": {"angle": 0, "axis": "y", "origin": [8, 10.5, 8]},
			"faces": {
				"north": {"uv": [7, 10, 8, 11], "texture": "#1"},
				"east": {"uv": [0, 0, 2, 1], "texture": "#1"},
				"south": {"uv": [8, 9, 9, 10], "texture": "#1"},
				"west": {"uv": [7, 7, 9, 8], "texture": "#1"},
				"up": {"uv": [9, 8, 10, 10], "texture": "#1"},
				"down": {"uv": [4, 5, 5, 7], "texture": "#1"}
			}
		},
		{
			"from": [6, 10, 7],
			"to": [7, 11, 9],
			"rotation": {"angle": 0, "axis": "y", "origin": [8, 10.5, 8]},
			"faces": {
				"north": {"uv": [7, 10, 8, 11], "texture": "#1"},
				"east": {"uv": [9, 10, 11, 11], "texture": "#1"},
				"south": {"uv": [10, 10, 11, 11], "texture": "#1"},
				"west": {"uv": [0, 0, 2, 1], "texture": "#1"},
				"up": {"uv": [10, 7, 11, 9], "texture": "#1"},
				"down": {"uv": [7, 4, 8, 6], "texture": "#1"}
			}
		},
		{
			"from": [7, 10, 9],
			"to": [9, 11, 10],
			"rotation": {"angle": 0, "axis": "y", "origin": [8, 10.5, 8]},
			"faces": {
				"north": {"uv": [8, 7, 10, 8], "texture": "#1"},
				"east": {"uv": [11, 12, 12, 13], "texture": "#1"},
				"south": {"uv": [0, 0, 2, 1], "texture": "#1"},
				"west": {"uv": [7, 10, 8, 11], "texture": "#1"},
				"up": {"uv": [7, 9, 9, 10], "texture": "#1"},
				"down": {"uv": [11, 9, 13, 10], "texture": "#1"}
			}
		},
		{
			"from": [7, 10, 6],
			"to": [9, 11, 7],
			"rotation": {"angle": 0, "axis": "y", "origin": [8, 10.5, 8]},
			"faces": {
				"north": {"uv": [0, 0, 2, 1], "texture": "#1"},
				"east": {"uv": [11, 12, 12, 13], "texture": "#1"},
				"south": {"uv": [10, 11, 12, 12], "texture": "#1"},
				"west": {"uv": [7, 10, 8, 11], "texture": "#1"},
				"up": {"uv": [8, 9, 10, 10], "texture": "#1"},
				"down": {"uv": [6, 6, 8, 7], "texture": "#1"}
			}
		},
		{
			"from": [7, 0, 4],
			"to": [9, 11, 5],
			"rotation": {"angle": 22.5, "axis": "x", "origin": [8, 6.5, 4.5]},
			"faces": {
				"north": {"uv": [14, 5, 16, 16], "texture": "#1"},
				"east": {"uv": [14, 5, 15, 16], "texture": "#1"},
				"south": {"uv": [0, 0, 2, 11], "texture": "#1"},
				"west": {"uv": [13, 5, 14, 16], "texture": "#1"},
				"up": {"uv": [11, 10, 13, 11], "texture": "#1"},
				"down": {"uv": [0, 0, 1, 1], "texture": "#1"}
			}
		},
		{
			"from": [7, 0, 11],
			"to": [9, 11, 12],
			"rotation": {"angle": -22.5, "axis": "x", "origin": [8, 6.5, 11.5]},
			"faces": {
				"north": {"uv": [0, 0, 2, 11], "texture": "#1"},
				"east": {"uv": [14, 5, 15, 16], "texture": "#1"},
				"south": {"uv": [14, 5, 16, 16], "texture": "#1"},
				"west": {"uv": [13, 5, 14, 16], "texture": "#1"},
				"up": {"uv": [9, 8, 11, 9], "texture": "#1"},
				"down": {"uv": [0, 0, 1, 1], "texture": "#1"}
			}
		},
		{
			"from": [11, 0, 7],
			"to": [12, 11, 9],
			"rotation": {"angle": 22.5, "axis": "z", "origin": [11.5, 7, 8]},
			"faces": {
				"north": {"uv": [14, 5, 15, 16], "texture": "#1"},
				"east": {"uv": [14, 5, 16, 16], "texture": "#1"},
				"south": {"uv": [14, 5, 15, 16], "texture": "#1"},
				"west": {"uv": [0, 0, 2, 11], "texture": "#1"},
				"up": {"uv": [9, 8, 10, 10], "texture": "#1"},
				"down": {"uv": [0, 0, 1, 1], "texture": "#1"}
			}
		},
		{
			"from": [4, 0, 7],
			"to": [5, 11, 9],
			"rotation": {"angle": -22.5, "axis": "z", "origin": [4.5, 7, 8]},
			"faces": {
				"north": {"uv": [14, 5, 15, 16], "texture": "#1"},
				"east": {"uv": [0, 0, 2, 11], "texture": "#1"},
				"south": {"uv": [14, 5, 15, 16], "texture": "#1"},
				"west": {"uv": [14, 5, 16, 16], "texture": "#1"},
				"up": {"uv": [9, 8, 10, 10], "texture": "#1"},
				"down": {"uv": [0, 0, 1, 1], "texture": "#1"}
			}
		},
		{
			"from": [7, 4, 7],
			"to": [9, 5, 9],
			"rotation": {"angle": 0, "axis": "y", "origin": [15, 12, 15]},
			"faces": {
				"north": {"uv": [0, 0, 2, 1], "texture": "#1"},
				"east": {"uv": [0, 0, 2, 1], "texture": "#1"},
				"south": {"uv": [0, 0, 2, 1], "texture": "#1"},
				"west": {"uv": [0, 0, 2, 1], "texture": "#1"},
				"up": {"uv": [12, 13, 14, 15], "texture": "#1"},
				"down": {"uv": [13, 12, 15, 14], "texture": "#1"}
			}
		},
		{
			"from": [6, 0, 1],
			"to": [10, 1, 3],
			"rotation": {"angle": 0, "axis": "y", "origin": [16, 8, 9]},
			"faces": {
				"north": {"uv": [8, 11, 12, 12], "texture": "#1"},
				"east": {"uv": [12, 12, 14, 13], "texture": "#1"},
				"south": {"uv": [7, 9, 11, 10], "texture": "#1"},
				"west": {"uv": [8, 10, 10, 11], "texture": "#1"},
				"up": {"uv": [8, 11, 12, 13], "texture": "#1"},
				"down": {"uv": [6, 9, 10, 11], "texture": "#1"}
			}
		},
		{
			"from": [6, 0, 13],
			"to": [10, 1, 15],
			"rotation": {"angle": 0, "axis": "y", "origin": [16, 8, 21]},
			"faces": {
				"north": {"uv": [8, 11, 12, 12], "texture": "#1"},
				"east": {"uv": [12, 12, 14, 13], "texture": "#1"},
				"south": {"uv": [7, 9, 11, 10], "texture": "#1"},
				"west": {"uv": [8, 10, 10, 11], "texture": "#1"},
				"up": {"uv": [10, 13, 14, 15], "texture": "#1"},
				"down": {"uv": [6, 9, 10, 11], "texture": "#1"}
			}
		},
		{
			"from": [1, 0, 6],
			"to": [3, 1, 10],
			"rotation": {"angle": 0, "axis": "y", "origin": [2, 0.5, 8]},
			"faces": {
				"north": {"uv": [8, 9, 10, 10], "texture": "#1"},
				"east": {"uv": [9, 11, 13, 12], "texture": "#1"},
				"south": {"uv": [7, 9, 9, 10], "texture": "#1"},
				"west": {"uv": [7, 9, 11, 10], "texture": "#1"},
				"up": {"uv": [8, 12, 12, 14], "rotation": 270, "texture": "#1"},
				"down": {"uv": [6, 9, 10, 11], "rotation": 90, "texture": "#1"}
			}
		},
		{
			"from": [13, 0, 6],
			"to": [15, 1, 10],
			"rotation": {"angle": 0, "axis": "y", "origin": [14, 0.5, 8]},
			"faces": {
				"north": {"uv": [8, 9, 10, 10], "texture": "#1"},
				"east": {"uv": [9, 11, 13, 12], "texture": "#1"},
				"south": {"uv": [7, 9, 9, 10], "texture": "#1"},
				"west": {"uv": [7, 9, 11, 10], "texture": "#1"},
				"up": {"uv": [9, 11, 13, 13], "rotation": 270, "texture": "#1"},
				"down": {"uv": [6, 9, 10, 11], "rotation": 90, "texture": "#1"}
			}
		},
		{
			"from": [7, 11, 7],
			"to": [9, 16, 9],
			"rotation": {"angle": 0, "axis": "y", "origin": [15, 18, 15]},
			"faces": {
				"north": {"uv": [10, 0, 12, 5], "texture": "#1"},
				"east": {"uv": [10, 0, 12, 5], "texture": "#1"},
				"south": {"uv": [10, 0, 12, 5], "texture": "#1"},
				"west": {"uv": [10, 0, 12, 5], "texture": "#1"},
				"up": {"uv": [6, 0, 8, 2], "texture": "#1"},
				"down": {"uv": [12, 3, 14, 5], "texture": "#1"}
			}
		},
		{
			"from": [7, 11, 6],
			"to": [9, 14, 7],
			"rotation": {"angle": 22.5, "axis": "x", "origin": [8, 11.5, 6.5]},
			"faces": {
				"north": {"uv": [10, 2, 12, 5], "texture": "#1"},
				"east": {"uv": [10, 2, 11, 5], "texture": "#1"},
				"south": {"uv": [10, 2, 12, 5], "texture": "#1"},
				"west": {"uv": [10, 2, 11, 5], "texture": "#1"},
				"up": {"uv": [8, 4, 10, 5], "texture": "#1"},
				"down": {"uv": [10, 4, 12, 5], "texture": "#1"}
			}
		},
		{
			"from": [7, 11, 9],
			"to": [9, 14, 10],
			"rotation": {"angle": -22.5, "axis": "x", "origin": [8, 11.5, 9.5]},
			"faces": {
				"north": {"uv": [10, 2, 12, 5], "texture": "#1"},
				"east": {"uv": [10, 2, 11, 5], "texture": "#1"},
				"south": {"uv": [10, 2, 12, 5], "texture": "#1"},
				"west": {"uv": [10, 2, 11, 5], "texture": "#1"},
				"up": {"uv": [8, 4, 10, 5], "texture": "#1"},
				"down": {"uv": [10, 4, 12, 5], "texture": "#1"}
			}
		},
		{
			"from": [9, 11, 7],
			"to": [10, 14, 9],
			"rotation": {"angle": 22.5, "axis": "z", "origin": [9.5, 11.5, 8]},
			"faces": {
				"north": {"uv": [10, 2, 11, 5], "texture": "#1"},
				"east": {"uv": [10, 2, 12, 5], "texture": "#1"},
				"south": {"uv": [10, 2, 11, 5], "texture": "#1"},
				"west": {"uv": [10, 2, 12, 5], "texture": "#1"},
				"up": {"uv": [8, 3, 9, 5], "texture": "#1"},
				"down": {"uv": [12, 3, 13, 5], "texture": "#1"}
			}
		},
		{
			"from": [6, 11, 7],
			"to": [7, 14, 9],
			"rotation": {"angle": -22.5, "axis": "z", "origin": [6.5, 11.5, 8]},
			"faces": {
				"north": {"uv": [10, 2, 11, 5], "texture": "#1"},
				"east": {"uv": [10, 2, 12, 5], "texture": "#1"},
				"south": {"uv": [10, 2, 11, 5], "texture": "#1"},
				"west": {"uv": [10, 2, 12, 5], "texture": "#1"},
				"up": {"uv": [8, 3, 9, 5], "texture": "#1"},
				"down": {"uv": [12, 3, 13, 5], "texture": "#1"}
			}
		}
	]
}